<svg xmlns="http://www.w3.org/2000/svg" width="100%" height="53" viewBox="0 0 229 53" fill="none">
    <g clip-path="url(#clip0_30_1250)">
        <path d="M193.415 47.8293C198.644 50.8873 204.72 52.6315 211.207 52.6315C217.687 52.6315 223.763 50.8799 229 47.8219V4.80965C223.763 1.75166 217.687 0 211.207 0C204.727 0 198.652 1.75166 193.415 4.80223V47.8293Z" fill="#B3B3B3"/>
        <path d="M211.2 1.20239C205.117 1.20239 199.402 2.79818 194.444 5.58897V47.0425C199.402 49.8407 205.117 51.4291 211.2 51.4291C217.283 51.4291 222.998 49.8333 227.956 47.0351V5.59639C222.998 2.79819 217.283 1.20239 211.2 1.20239ZM227.213 46.4339C222.454 49.0539 216.996 50.5384 211.2 50.5384C205.404 50.5384 199.946 49.0539 195.187 46.4339V6.20502C199.946 3.58495 205.397 2.10049 211.2 2.10049C217.004 2.10049 222.454 3.59237 227.213 6.20502V46.4339Z" fill="#666666"/>
        <path d="M196.084 30.9361V33.8605H226.33V8.48364L196.084 30.9361Z" fill="#E10B17"/>
        <path d="M226.33 6.89535C221.777 4.59444 216.643 3.29553 211.207 3.29553C205.772 3.29553 200.638 4.59444 196.084 6.89535V30.9362L226.33 8.47628V6.89535Z" fill="#1D70B6"/>
        <path d="M196.084 32.6656V45.5581C200.593 47.9704 205.742 49.3435 211.207 49.3435C216.673 49.3435 221.821 47.9704 226.33 45.5581V32.6656H196.084Z" fill="#1D1E1C"/>
        <path d="M204.205 34.5879V44.6154H202.697V40.5183C202.381 40.637 202.021 40.7336 201.535 40.7336C200.52 40.7336 200.027 40.3031 199.843 40.0952C199.357 39.546 199.313 38.7073 199.313 38.1877V34.5879H200.822V37.8537C200.822 38.1729 200.822 38.7666 201.108 39.0932C201.322 39.3233 201.623 39.3679 201.851 39.3679C202.138 39.3679 202.41 39.3233 202.697 39.1526V34.5953H204.205V34.5879Z" fill="white"/>
        <path d="M205.559 36.6662C205.559 36.2357 205.647 35.5083 206.36 34.959C206.706 34.6844 207.251 34.4395 208.038 34.4395C208.641 34.4395 209.303 34.5805 209.774 34.9293C210.046 35.1223 210.605 35.6493 210.605 36.6662V37.5643C210.605 38.1283 210.576 38.4029 210.148 38.9003C209.98 39.0858 209.759 39.2639 209.545 39.3901C209.987 39.6202 210.193 39.88 210.303 40.0582C210.576 40.5183 210.605 40.9711 210.605 41.4313V42.3591C210.605 42.9528 210.532 43.5911 209.943 44.1404C209.384 44.66 208.693 44.7639 208.008 44.7639C207.449 44.7639 206.751 44.6897 206.213 44.185C206.103 44.0958 205.566 43.5615 205.566 42.6485V41.9805H207.074V42.27C207.074 42.5 207.162 42.8341 207.317 42.9974C207.501 43.1977 207.861 43.272 208.104 43.272C208.479 43.272 208.707 43.1681 208.832 43.0419C209.104 42.7821 209.104 42.4629 209.104 42.129V41.5055C209.104 41.216 209.075 40.5925 208.7 40.2883C208.597 40.1917 208.354 40.0582 207.898 40.0582H207.442V38.685H207.847C208.244 38.685 208.604 38.5514 208.81 38.3213C209.082 38.017 209.097 37.5717 209.097 37.3787V37.015C209.097 36.7849 209.097 36.4212 208.795 36.1615C208.626 36.0278 208.369 35.9314 208.052 35.9314C207.765 35.9314 207.523 36.0352 207.361 36.206C207.104 36.4509 207.074 36.7552 207.074 36.9853V37.3045H205.566V36.6662H205.559Z" fill="white"/>
        <path d="M215.65 37.0151C215.65 36.7998 215.591 36.5103 215.451 36.3099C215.378 36.206 215.15 35.924 214.664 35.924C214.267 35.924 214.032 36.0946 213.878 36.2728C213.635 36.5771 213.62 36.963 213.62 37.3268V41.936C213.62 42.2849 213.62 42.6114 213.819 42.8786C213.922 43.0345 214.164 43.2572 214.591 43.2572C214.922 43.2572 215.253 43.1385 215.436 42.8935C215.51 42.7896 215.65 42.5447 215.65 42.025V41.9657H217.158V42.0845C217.158 43.1384 216.797 43.747 216.525 44.0365C216.209 44.3854 215.591 44.7491 214.546 44.7491C213.553 44.7491 212.98 44.3409 212.642 43.94C212.097 43.3017 212.112 42.5669 212.112 42.0177V37.1264C212.112 36.4212 212.2 35.627 212.885 35.0333C213.355 34.6028 214.046 34.4098 214.605 34.4098C215.238 34.4098 215.981 34.6547 216.429 35.1001C216.805 35.4786 217.107 36.1244 217.107 36.874V37.2822H215.642V37.0151H215.65Z" fill="white"/>
        <path d="M222.277 44.6154L221.887 42.6559H219.739L219.35 44.6154H217.841L220.151 34.5879H221.482L223.793 44.6154H222.277ZM220.784 37.349L219.997 41.2902H221.601L220.784 37.349Z" fill="white"/>
        <path d="M202.99 20.9605L228.845 6.71716L210.191 20.9605H202.99Z" fill="white"/>
        <path d="M219.334 18.4147L193.48 32.6655L212.134 18.4147H219.334Z" fill="white"/>
        <path d="M174.069 0.00744629V52.6316" stroke="#9C9B99" stroke-miterlimit="10"/>
        <path d="M9.98048 29.8701L12.8092 22.4235H18.9965L17.5822 26.1452H25.2147L28.9739 16.2533H2.25554L5.17974 22.4235H8.9359L4.05197 25.3743L0 36.04H21.4708L23.8157 29.8701H9.98048ZM123.34 16.2533L119.994 25.0553H113.807L117.153 16.2533H109.52L101.999 36.04H109.631L111.255 31.7717L118.747 28.3378L115.819 36.04H123.455L130.973 16.2533H123.34ZM45.6933 16.2533L35.4725 25.1563L38.8558 16.2533H31.2233L23.7017 36.04H31.3342L41.5242 27.2191L38.1717 36.04H45.8042L52.1826 19.261L54.1824 22.4235H58.9924L48.0197 36.0371H56.8108L67.7834 22.4235H70.2673L65.0934 36.0371H72.7261L79.1416 19.1631L81.2026 22.4235H86.013L75.0371 36.0371H83.828L89.0509 29.5633L93.1057 33.4335L92.1168 36.04H99.7495L107.271 16.2533H45.6933ZM95.5126 27.0962H91.0384L94.8039 22.4235H97.2879L95.5126 27.0962ZM151.723 22.4235L154.067 16.2533H132.612L130.267 22.4235H140.621L135.736 25.3743L134.029 29.8701H131.358L129.013 36.04H142.281L144.629 29.8701H141.665L144.494 22.4235H151.723Z" fill="#163E6C"/>
    </g>
    <defs>
        <clipPath id="clip0_30_1250">
            <rect width="229" height="53" fill="white"/>
        </clipPath>
    </defs>
</svg>