<svg width="77" height="80" viewBox="0 0 77 80" fill="none" xmlns="http://www.w3.org/2000/svg">
<g clip-path="url(#clip0_11_2256)">
<g clip-path="url(#clip1_11_2256)">
<path d="M45.9998 30.801H31.1284V27.282H45.9998V30.801Z" fill="#B3B3B3"/>
<path d="M45.9998 36.8303H31.1284V33.3113H45.9998V36.8303Z" fill="#B3B3B3"/>
<path d="M45.9998 55.7009H31.1284V52.1819H45.9998V55.7009Z" fill="#B3B3B3"/>
<path d="M45.9998 61.7285H31.1284V58.208H45.9998V61.7285Z" fill="#B3B3B3"/>
<path d="M13.2384 30.7318H22.1274L18.6474 35.8753L16.8504 33.1894L13.912 35.1419L17.1698 40.01L20.1027 40.017L24.0382 34.2023V41.4949H13.2384V30.7318ZM25.8046 45.0139L27.5696 43.255V28.984L29.5485 26.0615L26.6212 24.0938L24.509 27.2129H11.472L9.70703 28.973V43.255L11.472 45.0139H25.8046Z" fill="#B3B3B3"/>
<path d="M24.0386 66.3933H13.2389V55.6316H22.1277L18.6464 60.7737L16.8494 58.0878L13.9123 60.0403L17.1688 64.9098L20.1031 64.9181L24.0386 59.1007V66.3933ZM26.6202 48.9922L24.5094 52.1112H11.4725L9.70605 53.8714V68.152L11.4725 69.9122H25.8037L27.5701 68.152V53.8825L29.5489 50.9599L26.6202 48.9922Z" fill="#B3B3B3"/>
<path d="M50.4304 75.2242H5.12482V17.3986H12.9069V20.335H42.6483V17.3986H50.4304V75.2242ZM21.4556 7.52947H34.1635V9.74629H21.4556V7.52947ZM42.6483 12.6758V9.74629H37.6963V5.76929L35.9299 4.0105H19.6892L17.9243 5.76929V9.74629H12.9069V12.6758H0.385254V79.9457H55.17V12.6758H42.6483Z" fill="#B3B3B3"/>
</g>
</g>
<defs>
<clipPath id="clip0_11_2256">
<rect width="76.8" height="80" fill="white"/>
</clipPath>
<clipPath id="clip1_11_2256">
<rect width="55.2" height="76.8" fill="white" transform="translate(0 3.19995)"/>
</clipPath>
</defs>
</svg>
